<svg xmlns="http://www.w3.org/2000/svg" width="80" height="40" viewBox="0 0 80 40">
    <g fill="none" fill-rule="evenodd">
        <path fill="#043F83" d="M60.085 30.298l19.83-16.255V8.596L57.362 27.064 34.979 8.596l-3.32 2.723 23.064 18.979zM36.596 34.553v-2.808h-2.639v6.638h2.639v-3.234l4 3.234h3.234l-4.766-3.66 4.51-3.063h-3.148l-3.83 2.893zm23.49 2.553v-5.361h-8.171v1.532c0 1.446-.426 2.723-1.702 3.83H49.19v2.808h2.469v-1.532h7.66v1.532h2.467v-2.809h-1.702zm-2.64-4.085v4.085h-4.34c.937-.85 1.277-1.787 1.277-3.319v-.766h3.064zm15.065 5.362h1.787l2.808-4.766h.085v4.766h2.639v-6.638h-3.745l-2.723 4.595-2.724-4.595h-3.744v6.638h2.638v-4.766h.085l2.894 4.766z"/>
        <path fill="#AFB6BC" d="M37.787 0l22.979 18.979-3.32 2.723L34.98 3.32 12.596 21.277l-3.32-2.724L32.427 0z"/>
        <path fill="#043F83" d="M21.362 38.383L0 21.277V15.83L19.83 0h6.468L3.319 18.553l24.596 19.83z"/>
    </g>
</svg>
